<?xml version="1.0" encoding="utf-8"?>
<!-- Generator: Adobe Illustrator 18.1.0, SVG Export Plug-In . SVG Version: 6.00 Build 0)  -->
<svg version="1.1" id="Layer_1" xmlns="http://www.w3.org/2000/svg" xmlns:xlink="http://www.w3.org/1999/xlink" x="0px" y="0px"
	 viewBox="0 0 40 40" enable-background="new 0 0 40 40" xml:space="preserve">
<path fill="#A5A5A5" d="M34,24V8H6v16h4v2H6v2h12v6h4v-6h12v-2h-4v-2H34z M8,10h24v12H8V10z M28,26H12v-2h16V26z"/>
</svg>
