<?xml version="1.0" encoding="utf-8"?>
<!-- Generator: Adobe Illustrator 18.1.0, SVG Export Plug-In . SVG Version: 6.00 Build 0)  -->
<svg version="1.1" id="Layer_1" xmlns="http://www.w3.org/2000/svg" xmlns:xlink="http://www.w3.org/1999/xlink" x="0px" y="0px"
	 viewBox="0 0 40 40" enable-background="new 0 0 40 40" xml:space="preserve">
<g>
	<g>
		<path fill="#A5A5A5" d="M12.1,6.7c-3.3,0-6,2.7-6,6s2.7,6,6,6s6-2.7,6-6S15.5,6.7,12.1,6.7z M15.6,15.8v0.4h-7v-0.8
			c0-0.5,0.7-0.7,1.1-0.9c0.2-0.1,0.4-0.2,0.7-0.3c0.3-0.1,0.6-0.3,0.8-0.5c0.1-0.1,0.1-0.2,0.1-0.3c0-0.2,0-0.3-0.1-0.5
			c-0.1-0.3-0.2-0.5-0.3-0.7c-0.1-0.3-0.2-0.6-0.2-0.9c0-0.1-0.1-0.3-0.1-0.4c0-0.9,0.5-1.7,1.5-1.7s1.5,0.8,1.5,1.7
			c0,0.1,0,0.3-0.1,0.4c-0.1,0.3-0.1,0.6-0.2,0.9c-0.1,0.2-0.2,0.5-0.3,0.7c0,0.2-0.1,0.3-0.1,0.5c0,0.1,0,0.2,0.1,0.3
			c0.2,0.2,0.5,0.4,0.8,0.5c0.2,0.1,0.4,0.2,0.7,0.3c0.4,0.1,1.1,0.4,1.1,0.9V15.8z"/>
	</g>
	<g>
		<path fill="#A5A5A5" d="M27.9,6.7c-3.3,0-6,2.7-6,6s2.7,6,6,6s6-2.7,6-6S31.2,6.7,27.9,6.7z M31.4,15.8v0.4h-7v-0.8
			c0-0.5,0.7-0.7,1.1-0.9c0.2-0.1,0.4-0.2,0.7-0.3c0.3-0.1,0.6-0.3,0.8-0.5c0.1-0.1,0.1-0.2,0.1-0.3c0-0.2,0-0.3-0.1-0.5
			c-0.1-0.3-0.2-0.5-0.3-0.7c-0.1-0.3-0.2-0.6-0.2-0.9c0-0.1-0.1-0.3-0.1-0.4c0-0.9,0.5-1.7,1.5-1.7s1.5,0.8,1.5,1.7
			c0,0.1,0,0.3-0.1,0.4c-0.1,0.3-0.1,0.6-0.2,0.9c-0.1,0.2-0.2,0.5-0.3,0.7c0,0.2-0.1,0.3-0.1,0.5c0,0.1,0,0.2,0.1,0.3
			c0.2,0.2,0.5,0.4,0.8,0.5c0.2,0.1,0.4,0.2,0.7,0.3c0.4,0.1,1.1,0.4,1.1,0.9V15.8z"/>
	</g>
	<g>
		<path fill="#A5A5A5" d="M12.1,21.3c-3.3,0-6,2.7-6,6s2.7,6,6,6s6-2.7,6-6S15.5,21.3,12.1,21.3z M15.6,30.4v0.4h-7V30
			c0-0.5,0.7-0.7,1.1-0.9c0.2-0.1,0.4-0.2,0.7-0.3c0.3-0.1,0.6-0.3,0.8-0.5c0.1-0.1,0.1-0.2,0.1-0.3c0-0.2,0-0.3-0.1-0.5
			c-0.1-0.3-0.2-0.5-0.3-0.7c-0.1-0.3-0.2-0.6-0.2-0.9c0-0.1-0.1-0.3-0.1-0.4c0-0.9,0.5-1.7,1.5-1.7s1.5,0.8,1.5,1.7
			c0,0.1,0,0.3-0.1,0.4c-0.1,0.3-0.1,0.6-0.2,0.9c-0.1,0.2-0.2,0.5-0.3,0.7c0,0.2-0.1,0.3-0.1,0.5c0,0.1,0,0.2,0.1,0.3
			c0.2,0.2,0.5,0.4,0.8,0.5c0.2,0.1,0.4,0.2,0.7,0.3c0.4,0.1,1.1,0.4,1.1,0.9V30.4z"/>
	</g>
	<g>
		<path fill="#A5A5A5" d="M27.9,21.3c-3.3,0-6,2.7-6,6s2.7,6,6,6s6-2.7,6-6S31.2,21.3,27.9,21.3z M31.4,30.4v0.4h-7V30
			c0-0.5,0.7-0.7,1.1-0.9c0.2-0.1,0.4-0.2,0.7-0.3c0.3-0.1,0.6-0.3,0.8-0.5c0.1-0.1,0.1-0.2,0.1-0.3c0-0.2,0-0.3-0.1-0.5
			c-0.1-0.3-0.2-0.5-0.3-0.7c-0.1-0.3-0.2-0.6-0.2-0.9c0-0.1-0.1-0.3-0.1-0.4c0-0.9,0.5-1.7,1.5-1.7s1.5,0.8,1.5,1.7
			c0,0.1,0,0.3-0.1,0.4c-0.1,0.3-0.1,0.6-0.2,0.9c-0.1,0.2-0.2,0.5-0.3,0.7c0,0.2-0.1,0.3-0.1,0.5c0,0.1,0,0.2,0.1,0.3
			c0.2,0.2,0.5,0.4,0.8,0.5c0.2,0.1,0.4,0.2,0.7,0.3c0.4,0.1,1.1,0.4,1.1,0.9V30.4z"/>
	</g>
</g>
</svg>
