<?xml version="1.0" encoding="utf-8"?>
<!-- Generator: Adobe Illustrator 18.1.0, SVG Export Plug-In . SVG Version: 6.00 Build 0)  -->
<svg version="1.1" id="Layer_1" xmlns="http://www.w3.org/2000/svg" xmlns:xlink="http://www.w3.org/1999/xlink" x="0px" y="0px"
	 viewBox="0 0 40 40" enable-background="new 0 0 40 40" xml:space="preserve">
<g opacity="0">
	<rect opacity="0.8" fill="#FAAA42" width="40" height="40"/>
</g>
<g>
	<path fill="#A5A5A5" d="M20,32c-3.2,0-6.2-1.2-8.5-3.5C9.3,26.2,8,23.2,8,20c0-3.2,1.2-6.2,3.5-8.5C13.8,9.2,16.8,8,20,8
		c3.2,0,6.2,1.2,8.5,3.5c4.7,4.7,4.7,12.3,0,17C26.2,30.8,23.2,32,20,32z M20,9.1c-2.9,0-5.6,1.1-7.7,3.2c-2.1,2.1-3.2,4.8-3.2,7.7
		c0,2.9,1.1,5.6,3.2,7.7c2.1,2.1,4.8,3.2,7.7,3.2c2.9,0,5.6-1.1,7.7-3.2c4.2-4.2,4.2-11.1,0-15.4C25.6,10.3,22.9,9.1,20,9.1z"/>
</g>
<g>
	<path fill="#A5A5A5" d="M22.1,18c-0.2-1.1-1.1-1.7-2.2-1.7c-1.1,0-1.8,0.5-1.8,1.3c0,0.9,1.2,1.2,2.5,1.6c1.4,0.4,3.1,1.1,3.1,2.9
		c0,1.7-1.4,2.9-3.6,2.9c-2.1,0-3.4-1.2-3.8-2.9l1.5-0.4c0.2,1,1,1.9,2.4,1.9c1.2,0,1.9-0.6,1.9-1.5c0-1.2-1.5-1.4-2.8-1.9
		c-1.1-0.4-2.7-0.9-2.7-2.6c0-1.5,1.4-2.7,3.4-2.7c1.8,0,3.2,1.1,3.6,2.6L22.1,18z"/>
</g>
</svg>
