<?xml version="1.0" encoding="utf-8"?>
<!-- Generator: Adobe Illustrator 18.1.0, SVG Export Plug-In . SVG Version: 6.00 Build 0)  -->
<svg version="1.1" id="Layer_3" xmlns="http://www.w3.org/2000/svg" xmlns:xlink="http://www.w3.org/1999/xlink" x="0px" y="0px"
	 viewBox="0 0 48 48" enable-background="new 0 0 48 48" xml:space="preserve">
<g>
	<path fill="#00ABD3" d="M24,0L24,0C10.7,0,0,10.7,0,24v0c0,13.3,10.7,24,24,24h0c13.3,0,24-10.7,24-24v0C48,10.7,37.3,0,24,0z"/>
</g>
<g>
	<path fill="#FFFFFF" d="M41.7,20c-4.8-5.6-11-9-17.7-9s-12.9,3.4-17.7,9c-2,2.3-2,5.7,0,8c4.8,5.6,11,9,17.7,9s12.9-3.4,17.7-9
		C43.7,25.7,43.7,22.3,41.7,20z M24,31.7c-4.4,0-8-3.6-8-8c0-4.4,3.6-8,8-8s8,3.6,8,8C32,28.1,28.4,31.7,24,31.7z"/>
	<circle fill="#FFFFFF" cx="24" cy="24" r="4"/>
</g>
</svg>
