<?xml version="1.0" encoding="utf-8"?>
<!-- Generator: Adobe Illustrator 18.1.0, SVG Export Plug-In . SVG Version: 6.00 Build 0)  -->
<svg version="1.1" id="Layer_3" xmlns="http://www.w3.org/2000/svg" xmlns:xlink="http://www.w3.org/1999/xlink" x="0px" y="0px"
	 viewBox="0 0 48 48" enable-background="new 0 0 48 48" xml:space="preserve">
<g>
	<path fill="#A3A6A4" d="M24,0L24,0C10.7,0,0,10.7,0,24v0c0,13.3,10.7,24,24,24h0c13.3,0,24-10.7,24-24v0C48,10.7,37.3,0,24,0z"/>
</g>
<polygon fill="none" stroke="#FFFFFF" stroke-miterlimit="10" points="27.5,26.5 27.5,12.5 19.5,12.5 19.5,26.5 12,26.5 24,38.5 
	36,26.5 "/>
</svg>
