<?xml version="1.0" encoding="utf-8"?>
<!-- Generator: Adobe Illustrator 18.1.0, SVG Export Plug-In . SVG Version: 6.00 Build 0)  -->
<svg version="1.1" id="Layer_3" xmlns="http://www.w3.org/2000/svg" xmlns:xlink="http://www.w3.org/1999/xlink" x="0px" y="0px"
	 viewBox="0 0 48 48" enable-background="new 0 0 48 48" xml:space="preserve">
<g>
	<path fill="#A3A6A4" d="M24,0L24,0C10.7,0,0,10.7,0,24v0c0,13.3,10.7,24,24,24h0c13.3,0,24-10.7,24-24v0C48,10.7,37.3,0,24,0z"/>
</g>
<g>
	<path fill="none" stroke="#FFFFFF" stroke-miterlimit="10" d="M37.1,26.5L21.5,10.9l2.8-2.8c1.6-1.6,4.1-1.6,5.7,0l9.9,9.9
		c1.6,1.6,1.6,4.1,0,5.7L37.1,26.5z"/>
	<line fill="none" stroke="#FFFFFF" stroke-miterlimit="10" x1="9.8" y1="22.6" x2="25.4" y2="38.2"/>
	<g>
		<line fill="none" stroke="#FFFFFF" stroke-miterlimit="10" x1="25.4" y1="14.8" x2="14.1" y2="26.1"/>
		<line fill="none" stroke="#FFFFFF" stroke-miterlimit="10" x1="32.5" y1="21.9" x2="21.1" y2="33.2"/>
	</g>
	<polygon fill="none" stroke="#FFFFFF" stroke-width="0.9943" stroke-miterlimit="10" points="24.5,39.1 9.5,38.5 8.9,23.5 
		21.5,10.9 37.1,26.5 	"/>
	<polygon fill="#FFFFFF" points="9.3,32.7 9.5,38.5 15.3,38.7 	"/>
</g>
</svg>
