<?xml version="1.0" encoding="utf-8"?>
<!-- Generator: Adobe Illustrator 18.1.0, SVG Export Plug-In . SVG Version: 6.00 Build 0)  -->
<svg version="1.1" id="Layer_1" xmlns="http://www.w3.org/2000/svg" xmlns:xlink="http://www.w3.org/1999/xlink" x="0px" y="0px"
	 viewBox="0 0 80 80" enable-background="new 0 0 80 80" xml:space="preserve">
<path fill="#3B5A99" d="M66.6,0H13.4C6,0,0,6,0,13.4v53.2C0,74,6,80,13.4,80H36V45.5H24.5V32.1H36c0,0,0.1-3.7,0.3-10.4
	c0.2-7,1.9-11.1,7.6-15.1C49.6,2.6,64,4.8,64,4.8v12.2c0,0-4-0.4-7.5-0.2c-4.5,0.3-6.3,1.7-6.3,4.7C50,27.8,50,32,50,32l13.3,0
	l-1.6,13.4H50.2L50,80h16.6C74,80,80,74,80,66.6V13.4C80,6,74,0,66.6,0z"/>
</svg>
