<?xml version="1.0" encoding="utf-8"?>
<!-- Generator: Adobe Illustrator 18.1.0, SVG Export Plug-In . SVG Version: 6.00 Build 0)  -->
<svg version="1.1" id="Layer_3" xmlns="http://www.w3.org/2000/svg" xmlns:xlink="http://www.w3.org/1999/xlink" x="0px" y="0px"
	 viewBox="0 0 48 48" enable-background="new 0 0 48 48" xml:space="preserve">
<g>
	<path fill="#00ABD3" d="M24,0L24,0C10.7,0,0,10.7,0,24v0c0,13.3,10.7,24,24,24h0c13.3,0,24-10.7,24-24v0C48,10.7,37.3,0,24,0z"/>
</g>
<g>
	<path fill="none" stroke="#FFFFFF" stroke-width="2" stroke-miterlimit="10" d="M32.2,40H15.8c-1,0-1.9-0.8-2-1.8L12,16h24
		l-1.8,22.2C34.1,39.2,33.2,40,32.2,40z"/>
	<path fill="none" stroke="#FFFFFF" stroke-width="2" stroke-miterlimit="10" d="M27.1,12h-6.2v-2c0-1.1,0.9-2,2-2h2.2
		c1.1,0,2,0.9,2,2V12z"/>
	<path fill="none" stroke="#FFFFFF" stroke-width="2" stroke-miterlimit="10" d="M38,16H10v-2c0-1.1,0.9-2,2-2h24c1.1,0,2,0.9,2,2
		V16z"/>
	<g>
		
			<line fill="none" stroke="#FFFFFF" stroke-width="2" stroke-linecap="round" stroke-linejoin="round" stroke-miterlimit="10" x1="24" y1="20" x2="24" y2="36"/>
		
			<line fill="none" stroke="#FFFFFF" stroke-width="2" stroke-linecap="round" stroke-linejoin="round" stroke-miterlimit="10" x1="31" y1="20" x2="30" y2="36"/>
		
			<line fill="none" stroke="#FFFFFF" stroke-width="2" stroke-linecap="round" stroke-linejoin="round" stroke-miterlimit="10" x1="17" y1="20" x2="18" y2="36"/>
	</g>
</g>
</svg>
