<?xml version="1.0" encoding="utf-8"?>
<!-- Generator: Adobe Illustrator 18.1.0, SVG Export Plug-In . SVG Version: 6.00 Build 0)  -->
<svg version="1.1" xmlns="http://www.w3.org/2000/svg" xmlns:xlink="http://www.w3.org/1999/xlink" x="0px" y="0px"
	 viewBox="0 0 48 48" enable-background="new 0 0 48 48" xml:space="preserve">
<g id="colores">
	<g>
		<defs>
			<rect id="SVGID_1_" x="414" y="-334.9" width="160" height="160"/>
		</defs>
		<clipPath id="SVGID_2_">
			<use xlink:href="#SVGID_1_"  overflow="visible"/>
		</clipPath>
		<g clip-path="url(#SVGID_2_)">
			<defs>
				<rect id="SVGID_3_" x="-418" y="-694.9" width="1024" height="3000"/>
			</defs>
			<clipPath id="SVGID_4_">
				<use xlink:href="#SVGID_3_"  overflow="visible"/>
			</clipPath>
			<rect x="409" y="-339.9" clip-path="url(#SVGID_4_)" fill="#AF0D13" width="170" height="170"/>
		</g>
	</g>
	<g>
		<defs>
			<rect id="SVGID_5_" x="254" y="-334.9" width="160" height="160"/>
		</defs>
		<clipPath id="SVGID_6_">
			<use xlink:href="#SVGID_5_"  overflow="visible"/>
		</clipPath>
		<g clip-path="url(#SVGID_6_)">
			<defs>
				<rect id="SVGID_7_" x="-418" y="-694.9" width="1024" height="3000"/>
			</defs>
			<clipPath id="SVGID_8_">
				<use xlink:href="#SVGID_7_"  overflow="visible"/>
			</clipPath>
			<rect x="249" y="-339.9" clip-path="url(#SVGID_8_)" fill="#D0021B" width="170" height="170"/>
		</g>
	</g>
	<g>
		<defs>
			<rect id="SVGID_9_" x="94" y="-334.9" width="160" height="160"/>
		</defs>
		<clipPath id="SVGID_10_">
			<use xlink:href="#SVGID_9_"  overflow="visible"/>
		</clipPath>
		<g clip-path="url(#SVGID_10_)">
			<defs>
				<rect id="SVGID_11_" x="-418" y="-694.9" width="1024" height="3000"/>
			</defs>
			<clipPath id="SVGID_12_">
				<use xlink:href="#SVGID_11_"  overflow="visible"/>
			</clipPath>
			<rect x="89" y="-339.9" clip-path="url(#SVGID_12_)" fill="#7ED321" width="170" height="170"/>
		</g>
	</g>
	<g>
		<defs>
			<rect id="SVGID_13_" x="-66" y="-334.9" width="160" height="160"/>
		</defs>
		<clipPath id="SVGID_14_">
			<use xlink:href="#SVGID_13_"  overflow="visible"/>
		</clipPath>
		<g clip-path="url(#SVGID_14_)">
			<defs>
				<rect id="SVGID_15_" x="-418" y="-694.9" width="1024" height="3000"/>
			</defs>
			<clipPath id="SVGID_16_">
				<use xlink:href="#SVGID_15_"  overflow="visible"/>
			</clipPath>
			<rect x="-71" y="-339.9" clip-path="url(#SVGID_16_)" fill="#00ABD3" width="170" height="170"/>
		</g>
	</g>
	<g>
		<defs>
			<rect id="SVGID_17_" x="-226" y="-334.9" width="160" height="160"/>
		</defs>
		<clipPath id="SVGID_18_">
			<use xlink:href="#SVGID_17_"  overflow="visible"/>
		</clipPath>
		<g clip-path="url(#SVGID_18_)">
			<defs>
				<rect id="SVGID_19_" x="-418" y="-694.9" width="1024" height="3000"/>
			</defs>
			<clipPath id="SVGID_20_">
				<use xlink:href="#SVGID_19_"  overflow="visible"/>
			</clipPath>
			<rect x="-231" y="-339.9" clip-path="url(#SVGID_20_)" fill="#00BFD6" width="170" height="170"/>
		</g>
	</g>
	<g>
		<defs>
			<rect id="SVGID_21_" x="-386" y="-334.9" width="160" height="160"/>
		</defs>
		<clipPath id="SVGID_22_">
			<use xlink:href="#SVGID_21_"  overflow="visible"/>
		</clipPath>
		<g clip-path="url(#SVGID_22_)">
			<defs>
				<rect id="SVGID_23_" x="-418" y="-694.9" width="1024" height="3000"/>
			</defs>
			<clipPath id="SVGID_24_">
				<use xlink:href="#SVGID_23_"  overflow="visible"/>
			</clipPath>
			<rect x="-391" y="-339.9" clip-path="url(#SVGID_24_)" fill="#EFF1F3" width="170" height="170"/>
		</g>
	</g>
	<g>
		<defs>
			<rect id="SVGID_25_" x="414" y="-494.9" width="160" height="160"/>
		</defs>
		<clipPath id="SVGID_26_">
			<use xlink:href="#SVGID_25_"  overflow="visible"/>
		</clipPath>
		<g clip-path="url(#SVGID_26_)">
			<defs>
				<rect id="SVGID_27_" x="-418" y="-694.9" width="1024" height="3000"/>
			</defs>
			<clipPath id="SVGID_28_">
				<use xlink:href="#SVGID_27_"  overflow="visible"/>
			</clipPath>
			<rect x="409" y="-499.9" clip-path="url(#SVGID_28_)" fill="#E8EAE9" width="170" height="170"/>
		</g>
	</g>
	<g>
		<defs>
			<rect id="SVGID_29_" x="254" y="-494.9" width="160" height="160"/>
		</defs>
		<clipPath id="SVGID_30_">
			<use xlink:href="#SVGID_29_"  overflow="visible"/>
		</clipPath>
		<g clip-path="url(#SVGID_30_)">
			<defs>
				<rect id="SVGID_31_" x="-418" y="-694.9" width="1024" height="3000"/>
			</defs>
			<clipPath id="SVGID_32_">
				<use xlink:href="#SVGID_31_"  overflow="visible"/>
			</clipPath>
			<rect x="249" y="-499.9" clip-path="url(#SVGID_32_)" fill="#D6D5D6" width="170" height="170"/>
		</g>
	</g>
	<g>
		<defs>
			<rect id="SVGID_33_" x="94" y="-494.9" width="160" height="160"/>
		</defs>
		<clipPath id="SVGID_34_">
			<use xlink:href="#SVGID_33_"  overflow="visible"/>
		</clipPath>
		<g clip-path="url(#SVGID_34_)">
			<defs>
				<rect id="SVGID_35_" x="-418" y="-694.9" width="1024" height="3000"/>
			</defs>
			<clipPath id="SVGID_36_">
				<use xlink:href="#SVGID_35_"  overflow="visible"/>
			</clipPath>
			<rect x="89" y="-499.9" clip-path="url(#SVGID_36_)" fill="#A3A6A4" width="170" height="170"/>
		</g>
	</g>
	<g>
		<defs>
			<rect id="SVGID_37_" x="-66" y="-494.9" width="160" height="160"/>
		</defs>
		<clipPath id="SVGID_38_">
			<use xlink:href="#SVGID_37_"  overflow="visible"/>
		</clipPath>
		<g clip-path="url(#SVGID_38_)">
			<defs>
				<rect id="SVGID_39_" x="-418" y="-694.9" width="1024" height="3000"/>
			</defs>
			<clipPath id="SVGID_40_">
				<use xlink:href="#SVGID_39_"  overflow="visible"/>
			</clipPath>
			<rect x="-71" y="-499.9" clip-path="url(#SVGID_40_)" fill="#090A19" width="170" height="170"/>
		</g>
	</g>
	<g>
		<defs>
			<rect id="SVGID_41_" x="-226" y="-494.9" width="160" height="160"/>
		</defs>
		<clipPath id="SVGID_42_">
			<use xlink:href="#SVGID_41_"  overflow="visible"/>
		</clipPath>
		<g clip-path="url(#SVGID_42_)">
			<defs>
				<rect id="SVGID_43_" x="-418" y="-694.9" width="1024" height="3000"/>
			</defs>
			<clipPath id="SVGID_44_">
				<use xlink:href="#SVGID_43_"  overflow="visible"/>
			</clipPath>
			<rect x="-231" y="-499.9" clip-path="url(#SVGID_44_)" fill="#2C2A2D" width="170" height="170"/>
		</g>
	</g>
	<g>
		<defs>
			<rect id="SVGID_45_" x="-386" y="-494.9" width="160" height="160"/>
		</defs>
		<clipPath id="SVGID_46_">
			<use xlink:href="#SVGID_45_"  overflow="visible"/>
		</clipPath>
		<g clip-path="url(#SVGID_46_)">
			<defs>
				<rect id="SVGID_47_" x="-418" y="-694.9" width="1024" height="3000"/>
			</defs>
			<clipPath id="SVGID_48_">
				<use xlink:href="#SVGID_47_"  overflow="visible"/>
			</clipPath>
			<rect x="-391" y="-499.9" clip-path="url(#SVGID_48_)" fill="#414042" width="170" height="170"/>
		</g>
	</g>
	<g>
		<text transform="matrix(1 0 0 1 -217.1111 -373.9316)" fill="#FFFFFF" font-family="'OpenSans-Semibold'" font-size="18">Dark Secondary</text>
		<text transform="matrix(1 0 0 1 -217.1111 -351.0427)" fill="#FFFFFF" font-family="'OpenSans'" font-size="16">#2C2A2D</text>
		<text transform="matrix(1 0 0 1 -377.1111 -373.9316)" fill="#FFFFFF" font-family="'OpenSans-Semibold'" font-size="18">Dark Primary</text>
		<text transform="matrix(1 0 0 1 -377.1111 -351.0427)" fill="#FFFFFF" font-family="'OpenSans'" font-size="16">#414042</text>
		<text transform="matrix(1 0 0 1 -217.1111 -213.9316)" fill="#FFFFFF" font-family="'OpenSans-Semibold'" font-size="18">Accent</text>
		<text transform="matrix(1 0 0 1 -217.1111 -188.8205)" fill="#FFFFFF" font-family="'OpenSans'" font-size="16">#00BFD6</text>
		<text transform="matrix(1 0 0 1 102.8889 -373.9316)" fill="#FFFFFF" font-family="'OpenSans-Semibold'" font-size="18">Medium</text>
		<text transform="matrix(1 0 0 1 102.8889 -351.0427)" fill="#FFFFFF" font-family="'OpenSans'" font-size="16">#A3A6A4</text>
		<text transform="matrix(1 0 0 1 422.8889 -373.9316)" fill="#525154" font-family="'OpenSans-Semibold'" font-size="18">Header</text>
		<text transform="matrix(1 0 0 1 422.8889 -351.0427)" fill="#525154" font-family="'OpenSans'" font-size="16">#E8EAE9</text>
		<text transform="matrix(1 0 0 1 -57.1111 -373.9316)"><tspan x="0" y="0" fill="#FFFFFF" font-family="'OpenSans-Semibold'" font-size="18">Dark </tspan><tspan x="46.4" y="0" fill="#FFFFFF" font-family="'OpenSans-Semibold'" font-size="18" letter-spacing="-1">T</tspan><tspan x="55.3" y="0" fill="#FFFFFF" font-family="'OpenSans-Semibold'" font-size="18">et</tspan><tspan x="72.8" y="0" fill="#FFFFFF" font-family="'OpenSans-Semibold'" font-size="18">r</tspan><tspan x="80.2" y="0" fill="#FFFFFF" font-family="'OpenSans-Semibold'" font-size="18">ary</tspan></text>
		<text transform="matrix(1 0 0 1 -57.1111 -351.0427)" fill="#FFFFFF" font-family="'OpenSans'" font-size="16">#090A19</text>
		<text transform="matrix(1 0 0 1 262.8889 -213.9316)" fill="#FFFFFF" font-family="'OpenSans-Semibold'" font-size="18">False Normal</text>
		<text transform="matrix(1 0 0 1 422.8889 -213.9316)"><tspan x="0" y="0" fill="#FFFFFF" font-family="'OpenSans-Semibold'" font-size="18">False H</tspan><tspan x="62.4" y="0" fill="#FFFFFF" font-family="'OpenSans-Semibold'" font-size="18">o</tspan><tspan x="73" y="0" fill="#FFFFFF" font-family="'OpenSans-Semibold'" font-size="18">ver</tspan></text>
		<text transform="matrix(1 0 0 1 262.8889 -373.9316)" fill="#525154" font-family="'OpenSans-Semibold'" font-size="18">Divider</text>
		<text transform="matrix(1 0 0 1 262.8889 -351.0427)" fill="#525154" font-family="'OpenSans'" font-size="16">#D6D5D6</text>
		<text transform="matrix(1 0 0 1 102.8889 -213.9316)"><tspan x="0" y="0" fill="#FFFFFF" font-family="'OpenSans-Semibold'" font-size="18">T</tspan><tspan x="9.3" y="0" fill="#FFFFFF" font-family="'OpenSans-Semibold'" font-size="18">rue</tspan></text>
		<text transform="matrix(1 0 0 1 -57.1111 -213.9316)"><tspan x="0" y="0" fill="#FFFFFF" font-family="'OpenSans-Semibold'" font-size="18">Accent H</tspan><tspan x="76.8" y="0" fill="#FFFFFF" font-family="'OpenSans-Semibold'" font-size="18">o</tspan><tspan x="87.4" y="0" fill="#FFFFFF" font-family="'OpenSans-Semibold'" font-size="18">ver</tspan></text>
		<text transform="matrix(1 0 0 1 -57.1111 -188.8205)" fill="#FFFFFF" font-family="'OpenSans'" font-size="16">#00ABD3</text>
		<text transform="matrix(1 0 0 1 -377.1111 -213.9316)" fill="#525154" font-family="'OpenSans-Semibold'" font-size="18">Light Primary</text>
		<text transform="matrix(1 0 0 1 -377.1111 -188.8205)" fill="#525154" font-family="'OpenSans'" font-size="16">#EFF1F3</text>
		<text transform="matrix(1 0 0 1 262.8889 -188.8205)" fill="#FFFFFF" font-family="'OpenSans'" font-size="16"># D0021B</text>
		<text transform="matrix(1 0 0 1 422.8889 -188.8205)" fill="#FFFFFF" font-family="'OpenSans'" font-size="16"># AF0D13</text>
		<text transform="matrix(1 0 0 1 102.8889 -188.8205)" fill="#FFFFFF" font-family="'OpenSans'" font-size="16">#7ED321</text>
	</g>
</g>
<g id="Layer_2" display="none">
	<rect x="-192.2" y="-119.2" display="inline" fill="#5D5D5D" width="630.1" height="588.1"/>
</g>
<g id="Layer_3">
	<rect x="-342" y="-152" fill="#00BFD6" width="51.5" height="51.5"/>
	<rect x="-285" y="-152" fill="#00ABD3" width="51.5" height="51.5"/>
	<rect x="-230.5" y="-152" fill="#414042" width="51.5" height="51.5"/>
	<rect x="-173.5" y="-152" fill="#A3A6A4" width="51.5" height="51.5"/>
	<rect x="-119" y="-152" fill="#7ED321" width="51.5" height="51.5"/>
	<rect x="-59.8" y="-152" fill="#D0021B" width="51.5" height="51.5"/>
	<rect x="8.2" y="-152" fill="#AF0D13" width="51.5" height="51.5"/>
	<polyline fill="none" stroke="#7ED321" stroke-linecap="round" stroke-linejoin="round" stroke-miterlimit="10" points="
		-122.4,-42.6 -116.1,-36 -101.6,-52 	"/>
	
		<line fill="none" stroke="#D0021B" stroke-linecap="round" stroke-linejoin="round" stroke-miterlimit="10" x1="-36.2" y1="-51.8" x2="-52.2" y2="-35.8"/>
	
		<line fill="none" stroke="#D0021B" stroke-linecap="round" stroke-linejoin="round" stroke-miterlimit="10" x1="-36.2" y1="-35.8" x2="-52.2" y2="-51.8"/>
	<g>
		<path fill="#A3A6A4" d="M24-66.1c12.2,0,22.1,9.9,22.1,22.1S36.2-21.9,24-21.9S1.9-31.8,1.9-44S11.8-66.1,24-66.1 M24-68
			C10.7-68,0-57.3,0-44s10.7,24,24,24s24-10.7,24-24S37.3-68,24-68L24-68z"/>
	</g>
	<g>
		<path fill="#A3A6A4" d="M23.2-52c0-0.8,0.3-1.2,0.8-1.2c0.3,0,0.5,0.1,0.6,0.3c0.1,0.2,0.2,0.5,0.2,0.9c0,0.4-0.1,0.7-0.2,0.9
			c-0.1,0.2-0.3,0.3-0.6,0.3C23.5-50.8,23.2-51.2,23.2-52z M24.6-34.8h-1.2v-13.5h1.2V-34.8z"/>
	</g>
	<g>
		<path fill="#7ED321" d="M92-66.1c12.2,0,22.1,9.9,22.1,22.1S104.2-21.9,92-21.9S69.9-31.8,69.9-44S79.8-66.1,92-66.1 M92-68
			c-13.3,0-24,10.7-24,24s10.7,24,24,24s24-10.7,24-24S105.3-68,92-68L92-68z"/>
	</g>
	<g>
		<path fill="#D0021B" d="M160-66.1c12.2,0,22.1,9.9,22.1,22.1s-9.9,22.1-22.1,22.1s-22.1-9.9-22.1-22.1S147.8-66.1,160-66.1
			 M160-68c-13.3,0-24,10.7-24,24s10.7,24,24,24s24-10.7,24-24S173.3-68,160-68L160-68z"/>
	</g>
	<polyline fill="none" stroke="#7ED321" stroke-linecap="round" stroke-linejoin="round" stroke-miterlimit="10" points="
		81.6,-42.6 87.9,-36 102.4,-52 	"/>
	
		<line fill="none" stroke="#D0021B" stroke-linecap="round" stroke-linejoin="round" stroke-miterlimit="10" x1="168" y1="-52" x2="152" y2="-36"/>
	
		<line fill="none" stroke="#D0021B" stroke-linecap="round" stroke-linejoin="round" stroke-miterlimit="10" x1="168" y1="-36" x2="152" y2="-52"/>
	<g>
		<path fill="#00BFD6" d="M228-28c-4.3,0-8.3-1.7-11.3-4.7c-3-3-4.7-7-4.7-11.3c0-4.3,1.7-8.3,4.7-11.3c3-3,7-4.7,11.3-4.7
			c4.3,0,8.3,1.7,11.3,4.7c6.2,6.2,6.2,16.4,0,22.6C236.3-29.7,232.3-28,228-28z M228-58.5c-3.9,0-7.5,1.5-10.3,4.2
			c-2.7,2.7-4.3,6.4-4.3,10.3c0,3.9,1.5,7.5,4.2,10.3c2.7,2.7,6.4,4.2,10.3,4.2c3.9,0,7.5-1.5,10.3-4.3c5.7-5.7,5.7-14.9,0-20.5
			C235.5-57,231.9-58.5,228-58.5z"/>
	</g>
	<g>
		<path fill="#00BFD6" d="M230.8-46.7c-0.3-1.4-1.5-2.2-2.9-2.2c-1.4,0-2.4,0.7-2.4,1.7c0,1.2,1.6,1.6,3.3,2.1
			c1.8,0.6,4.1,1.5,4.1,3.9c0,2.2-1.9,3.8-4.8,3.8c-2.7,0-4.5-1.6-5.1-3.8l1.9-0.5c0.2,1.3,1.4,2.5,3.2,2.5c1.6,0,2.6-0.8,2.6-1.9
			c0-1.6-2-1.9-3.8-2.5c-1.5-0.5-3.5-1.2-3.5-3.5c0-2,1.9-3.6,4.6-3.6c2.4,0,4.3,1.4,4.7,3.5L230.8-46.7z"/>
	</g>
	<rect x="227.3" y="-52" fill="#00BFD6" width="1.3" height="16"/>
	<polygon fill="#00BFD6" points="301,-49 301,-52 292.3,-52 292.3,-52 290,-52 290,-36 292.3,-36 292.3,-36 301,-36 301,-39 
		293,-39 293,-43 299,-43 299,-45 293,-45 293,-49 	"/>
	<g>
		<path fill="#00BFD6" d="M296-28c-4.3,0-8.3-1.7-11.3-4.7c-3-3-4.7-7-4.7-11.3c0-4.3,1.7-8.3,4.7-11.3c3-3,7-4.7,11.3-4.7
			c4.3,0,8.3,1.7,11.3,4.7c6.2,6.2,6.2,16.4,0,22.6C304.3-29.7,300.3-28,296-28z M296-58.5c-3.9,0-7.5,1.5-10.3,4.2
			c-2.7,2.7-4.3,6.4-4.3,10.3c0,3.9,1.5,7.5,4.2,10.3c2.7,2.7,6.4,4.2,10.3,4.2c3.9,0,7.5-1.5,10.3-4.3c5.7-5.7,5.7-14.9,0-20.5
			C303.5-57,299.9-58.5,296-58.5z"/>
	</g>
	<path fill="#00BFD6" d="M352-57.1v26.2h7.6v-4.4h8.7v4.4h7.6v-26.2H352z M359.6-37.5h-4.4v-4.4h4.4V-37.5z M359.6-44h-4.4v-4.4h4.4
		V-44z M359.6-50.5h-4.4v-4.4h4.4V-50.5z M366.2-37.5h-4.4v-4.4h4.4V-37.5z M366.2-44h-4.4v-4.4h4.4V-44z M366.2-50.5h-4.4v-4.4h4.4
		V-50.5z M372.7-37.5h-4.4v-4.4h4.4V-37.5z M372.7-44h-4.4v-4.4h4.4V-44z M372.7-50.5h-4.4v-4.4h4.4V-50.5z"/>
	<g>
		<g>
			<circle fill="#00BFD6" cx="-124.4" cy="15.3" r="2.1"/>
			<path fill="#00BFD6" d="M-119.5,24.2c-0.4-0.2-3.1-1.5-3.1-1.5s-1-2-1.4-3.1c-0.5-1-0.8-1.3-1.5-1.3h-1c-0.5,0-0.7,0.2-1.1,0.4
				l-2.8,2.3c-0.2,0.1-0.4,0.3-0.5,0.6l-0.6,4c-0.1,0.6,0.2,0.9,0.6,1c0.3,0.1,0.8-0.1,0.9-0.5c0.1-0.4,0.6-3.6,0.6-3.6l1.8-1.4
				c-0.3,1.4-0.6,2.9-0.7,3.4c0,0.1,0,0.2,0,0.2l0,0l-1.2,5.2c0,0-1.7,2.5-2.2,3.2c-0.4,0.5-0.6,1.2,0,1.6c0.7,0.5,1.3-0.2,1.6-0.6
				c0.3-0.4,1.7-2.2,2.1-2.7c0.3-0.3,0.4-0.6,0.5-0.9c0.1-0.2,0.6-1.7,0.9-2.5c1.3,2.1,3.5,5.5,3.9,6c0.5,0.7,1,1,1.8,0.6
				c0.6-0.4,0.5-1.1,0.2-1.7c-0.3-0.6-4.4-7.3-4.4-7.3l0.7-3c0,0,0.5,0.7,0.7,1.1c0.1,0.2,0.2,0.3,0.6,0.4c0.4,0.2,2.2,1,2.8,1.3
				c0.5,0.2,1.1,0.3,1.4-0.1C-118.8,24.9-119.1,24.3-119.5,24.2z"/>
		</g>
		<g>
			<path fill="#00BFD6" d="M-98.3,14.7c0.1,0,0.1,0,0.1,0.1l0,0.1l0,0l3,6.8h-17.7l3-6.8l0,0l0-0.1c0-0.1,0.1-0.1,0.1-0.1H-98.3
				 M-98.3,13.5h-11.4c-0.6,0-1.1,0.4-1.3,0.9l-3.7,8.4h21.3l-3.7-8.4C-97.2,13.9-97.7,13.5-98.3,13.5L-98.3,13.5z"/>
			<path fill="#00BFD6" d="M-93.3,22.7c0.1,0,0.1,0.1,0.1,0.1v6.7c0,0.1-0.1,0.1-0.1,0.1h-21.3c-0.1,0-0.1-0.1-0.1-0.1v-6.7
				c0-0.1,0.1-0.1,0.1-0.1H-93.3 M-93.3,21.5h-21.3c-0.7,0-1.3,0.6-1.3,1.3v6.7c0,0.7,0.6,1.3,1.3,1.3h21.3c0.7,0,1.3-0.6,1.3-1.3
				v-6.7C-92,22.1-92.6,21.5-93.3,21.5L-93.3,21.5z"/>
			<circle fill="#00BFD6" cx="-112" cy="25.5" r="1.3"/>
			<circle fill="#00BFD6" cx="-96" cy="25.5" r="1.3"/>
			<rect x="-108" y="24.2" fill="#00BFD6" width="8" height="2.7"/>
			<g>
				<rect x="-114.7" y="30.8" fill="#00BFD6" width="4" height="4"/>
				<rect x="-97.3" y="30.8" fill="#00BFD6" width="4" height="4"/>
			</g>
		</g>
	</g>
	<g>
		<path fill="#00BFD6" d="M-44,40c-4.3,0-8.3-1.7-11.3-4.7c-3-3-4.7-7-4.7-11.3c0-4.3,1.7-8.3,4.7-11.3c3-3,7-4.7,11.3-4.7
			c4.3,0,8.3,1.7,11.3,4.7c6.2,6.2,6.2,16.4,0,22.6C-35.7,38.3-39.7,40-44,40z M-44,9.5c-3.9,0-7.5,1.5-10.3,4.2
			c-2.7,2.7-4.3,6.4-4.3,10.3c0,3.9,1.5,7.5,4.2,10.3c2.7,2.7,6.4,4.2,10.3,4.2c3.9,0,7.5-1.5,10.3-4.3c5.7-5.7,5.7-14.9,0-20.5
			C-36.5,11-40.1,9.5-44,9.5z"/>
	</g>
	<g>
		<path fill="#00BFD6" d="M-37.4,18.4l-8.5,9.9c-0.7,0.8-1.3,1.3-1.3,1.4l0,0c0,0,1-0.1,2.2-0.1h7.6V32h-13.2v-2.4l8.7-10
			c0.5-0.6,1.3-1.3,1.3-1.3l0,0c0,0-1.1,0.1-2.2,0.1h-7.5V16h13V18.4z"/>
	</g>
	<path fill="#00BFD6" d="M24,12.3c3.4,0,5,2.7,5,5.8c0,0.5-0.1,0.9-0.2,1.3c-0.2,1-0.4,2.1-0.8,3.1c-0.4,0.8-0.8,1.5-1,2.4
		c-0.1,0.6-0.3,1.1-0.3,1.7c0,0.4,0.2,0.6,0.4,0.9c0.7,0.8,1.7,1.4,2.7,1.8c0.7,0.3,1.5,0.6,2.2,0.9c1.2,0.5,3.6,1.4,3.6,2.9v1.1
		v1.5H12.3v-2.5c0-1.6,2.4-2.4,3.6-2.9c0.7-0.3,1.5-0.6,2.2-0.9c1-0.5,2-1,2.7-1.8c0.3-0.3,0.4-0.5,0.4-0.9c0-0.6-0.1-1.2-0.3-1.7
		c-0.2-0.9-0.6-1.6-1-2.4c-0.4-1-0.6-2.1-0.8-3.1C19.1,19,19,18.6,19,18.1C19,15,20.6,12.3,24,12.3 M24,11c-3.8,0-6.3,2.9-6.3,7.1
		c0,0.4,0.1,0.8,0.2,1.2c0,0.1,0.1,0.3,0.1,0.4l0,0l0,0c0.1,0.2,0.1,0.5,0.2,0.8c0.2,0.8,0.3,1.7,0.7,2.6c0.1,0.3,0.2,0.5,0.4,0.8
		c0.2,0.5,0.4,0.9,0.5,1.3l0,0l0,0c0.1,0.4,0.2,0.9,0.2,1.3c0,0-0.1,0.1-0.1,0.1c-0.5,0.6-1.3,1-2.3,1.5c-0.5,0.2-1,0.4-1.5,0.6
		c-0.2,0.1-0.4,0.2-0.7,0.3l-0.3,0.1c-1.4,0.6-4.1,1.7-4.1,4v2.5V37h1.3h23.4H37v-1.3v-1.5v-1.1c0-2.4-2.8-3.5-4.3-4.1L32.6,29
		l-0.5-0.2c-0.6-0.2-1.1-0.5-1.7-0.7c-1-0.4-1.7-0.9-2.3-1.5c0,0,0-0.1-0.1-0.1c0-0.4,0.1-0.8,0.2-1.2l0-0.2
		c0.1-0.5,0.3-0.9,0.6-1.4c0.1-0.2,0.2-0.5,0.3-0.7c0.4-1,0.6-1.9,0.7-2.8l0.1-0.5c0-0.2,0.1-0.3,0.1-0.4c0.1-0.3,0.2-0.7,0.2-1.2
		C30.3,13.9,27.8,11,24,11L24,11z"/>
</g>
</svg>
