<?xml version="1.0" encoding="utf-8"?>
<!-- Generator: Adobe Illustrator 18.1.0, SVG Export Plug-In . SVG Version: 6.00 Build 0)  -->
<svg version="1.1" id="Layer_1" xmlns="http://www.w3.org/2000/svg" xmlns:xlink="http://www.w3.org/1999/xlink" x="0px" y="0px"
	 viewBox="0 0 80 80" enable-background="new 0 0 80 80" xml:space="preserve">
<g>
	<path fill="#FFFFFF" d="M50.4,18.2"/>
	<g>
		<path fill="#FFFFFF" d="M39.7,80C17.9,80,0.2,62.1,0.2,40S17.9,0,39.7,0c10.7,0,20.8,3.8,28.4,10.8c7.8,7.2,12.1,16.9,12.1,27.5
			C80.2,60.5,61.2,80,39.7,80z M39.7,1.9C18.9,1.9,2,19,2,40s16.9,38.1,37.6,38.1c20.6,0,38.7-18.6,38.7-39.8
			c0-10-4.1-19.3-11.5-26.1C59.6,5.5,49.9,1.9,39.7,1.9z"/>
		<g>
			<path fill="#FFFFFF" d="M47.2,52.7l-5.8,10L16.9,21.5l-0.7-1.2l-5.4,0l2.3,3.6l26.3,44.7c0.4,0.7,1.1,1.4,1.9,1.4c0,0,0,0,0,0
				c0.8,0,1.5-0.7,1.9-1.4l6.4-11.2L47.2,52.7z"/>
			<path fill="#FFFFFF" d="M69.3,21.3c-0.4-0.7-1.1-1.3-2-1.3H32.4c-0.8,0-1.5,0.6-1.9,1.3c-0.4,0.7-0.4,1.6,0,2.3L41,42.2l0,0
				l1.4,2.5l2.4-4.6L36.3,25h27.1L49.8,48.3l2.6,4.4l16.9-29.1C69.7,23,69.7,22,69.3,21.3z"/>
		</g>
	</g>
</g>
</svg>
