<?xml version="1.0" encoding="utf-8"?>
<!-- Generator: Adobe Illustrator 18.1.0, SVG Export Plug-In . SVG Version: 6.00 Build 0)  -->
<svg version="1.1" id="Layer_2" xmlns="http://www.w3.org/2000/svg" xmlns:xlink="http://www.w3.org/1999/xlink" x="0px" y="0px"
	 viewBox="0 0 64 64" enable-background="new 0 0 64 64" xml:space="preserve">
<g opacity="0">
	<rect opacity="0.8" fill="#FAAA42" width="64" height="64"/>
</g>
<g>
	<polygon fill="#D6D5D6" points="44.8,44.3 38.3,27.4 25.7,27.4 19.2,44.3 14,44.3 14,47 18.2,47 45.8,47 50,47 50,44.3 	"/>
	<polygon fill="#D6D5D6" points="34.3,17 29.7,17 26.5,25.5 37.5,25.5 	"/>
</g>
</svg>
