<?xml version="1.0" encoding="utf-8"?>
<!-- Generator: Adobe Illustrator 18.1.0, SVG Export Plug-In . SVG Version: 6.00 Build 0)  -->
<svg version="1.1" id="Layer_2" xmlns="http://www.w3.org/2000/svg" xmlns:xlink="http://www.w3.org/1999/xlink" x="0px" y="0px"
	 viewBox="0 0 64 64" enable-background="new 0 0 64 64" xml:space="preserve">
<g opacity="0">
	<rect opacity="0.8" fill="#FAAA42" width="64" height="64"/>
</g>
<path fill="#00BFD6" d="M17.3,34.6"/>
<path fill="#00BFD6" d="M46.5,34.6"/>
<g>
	<g>
		<path fill="#00BFD6" d="M38.8,27L38.8,27L38.8,27l0.1,0.1l3.5,7.9H21.6l3.5-7.9l0-0.1l0-0.1H38.8 M38.8,25.4H25.2
			c-0.7,0-1.3,0.4-1.5,1.1l-4.4,10.1h25.6l-4.4-10.1C40.1,25.8,39.5,25.4,38.8,25.4L38.8,25.4z"/>
		<path fill="#00BFD6" d="M44.8,36.6L44.8,36.6v8H19.2l0-8H44.8 M44.8,35H19.2c-0.9,0-1.6,0.7-1.6,1.6v8c0,0.9,0.7,1.6,1.6,1.6h25.6
			c0.9,0,1.6-0.7,1.6-1.6v-8C46.4,35.7,45.7,35,44.8,35L44.8,35z"/>
		<circle fill="#00BFD6" cx="22.4" cy="39.8" r="1.6"/>
		<circle fill="#00BFD6" cx="41.6" cy="39.8" r="1.6"/>
		<rect x="27.2" y="38.2" fill="#00BFD6" width="9.6" height="3.2"/>
		<g>
			<rect x="19.2" y="46.1" fill="#00BFD6" width="4.8" height="4.8"/>
			<rect x="40" y="46.1" fill="#00BFD6" width="4.8" height="4.8"/>
		</g>
	</g>
	<path fill="#00BFD6" d="M14.4,50.9V22.2c0-0.9,0.8-1.6,1.9-1.6h31.4c1,0,1.9,0.7,1.9,1.6v28.8h3.2V22.2c0-2.6-2.3-4.8-5.1-4.8H16.3
		c-2.8,0-5.1,2.2-5.1,4.8v28.8H14.4z"/>
</g>
</svg>
